EESchema Schematic File Version 4
LIBS:button-cache
EELAYER 26 0
EELAYER END
$Descr A4 11693 8268
encoding utf-8
Sheet 1 1
Title ""
Date ""
Rev ""
Comp ""
Comment1 ""
Comment2 ""
Comment3 ""
Comment4 ""
$EndDescr
$Comp
L Transistor_BJT:2N3904 Q1
U 1 1 5D676D2E
P 4550 2300
F 0 "Q1" H 4741 2346 50  0000 L CNN
F 1 "2N3904" H 4741 2255 50  0000 L CNN
F 2 "Package_TO_SOT_THT:TO-92_HandSolder" H 4750 2225 50  0001 L CIN
F 3 "https://www.fairchildsemi.com/datasheets/2N/2N3904.pdf" H 4550 2300 50  0001 L CNN
	1    4550 2300
	1    0    0    -1  
$EndComp
$Comp
L Device:R R2
U 1 1 5D676EA8
P 4650 2650
F 0 "R2" H 4720 2696 50  0000 L CNN
F 1 "100" H 4720 2605 50  0000 L CNN
F 2 "Resistor_THT:R_Axial_DIN0204_L3.6mm_D1.6mm_P5.08mm_Horizontal" V 4580 2650 50  0001 C CNN
F 3 "~" H 4650 2650 50  0001 C CNN
	1    4650 2650
	1    0    0    -1  
$EndComp
$Comp
L Device:LED D1
U 1 1 5D676FEB
P 7400 2000
F 0 "D1" V 7438 1883 50  0000 R CNN
F 1 "LED" V 7347 1883 50  0000 R CNN
F 2 "" H 7400 2000 50  0001 C CNN
F 3 "~" H 7400 2000 50  0001 C CNN
	1    7400 2000
	0    -1   -1   0   
$EndComp
$Comp
L power:GND #PWR0101
U 1 1 5D6771C9
P 4650 2800
F 0 "#PWR0101" H 4650 2550 50  0001 C CNN
F 1 "GND" H 4655 2627 50  0000 C CNN
F 2 "" H 4650 2800 50  0001 C CNN
F 3 "" H 4650 2800 50  0001 C CNN
	1    4650 2800
	1    0    0    -1  
$EndComp
$Comp
L power:+3.3V #PWR0102
U 1 1 5D6771FB
P 4650 1800
F 0 "#PWR0102" H 4650 1650 50  0001 C CNN
F 1 "+3.3V" H 4665 1973 50  0000 C CNN
F 2 "" H 4650 1800 50  0001 C CNN
F 3 "" H 4650 1800 50  0001 C CNN
	1    4650 1800
	1    0    0    -1  
$EndComp
$Comp
L Switch:SW_Push SW1
U 1 1 5D67777C
P 7750 2550
F 0 "SW1" H 7750 2835 50  0000 C CNN
F 1 "SW_Push" H 7750 2744 50  0000 C CNN
F 2 "" H 7750 2750 50  0001 C CNN
F 3 "" H 7750 2750 50  0001 C CNN
	1    7750 2550
	1    0    0    -1  
$EndComp
$Comp
L Device:R R1
U 1 1 5D743CA7
P 4200 2300
F 0 "R1" V 3993 2300 50  0000 C CNN
F 1 "10k" V 4084 2300 50  0000 C CNN
F 2 "Resistor_THT:R_Axial_DIN0204_L3.6mm_D1.6mm_P5.08mm_Horizontal" V 4130 2300 50  0001 C CNN
F 3 "~" H 4200 2300 50  0001 C CNN
	1    4200 2300
	0    1    1    0   
$EndComp
$Comp
L power:GND #PWR0104
U 1 1 5D7445F0
P 3300 2100
F 0 "#PWR0104" H 3300 1850 50  0001 C CNN
F 1 "GND" H 3305 1927 50  0000 C CNN
F 2 "" H 3300 2100 50  0001 C CNN
F 3 "" H 3300 2100 50  0001 C CNN
	1    3300 2100
	0    -1   -1   0   
$EndComp
$Comp
L power:+3.3V #PWR0105
U 1 1 5D74470A
P 2800 1900
F 0 "#PWR0105" H 2800 1750 50  0001 C CNN
F 1 "+3.3V" H 2815 2073 50  0000 C CNN
F 2 "" H 2800 1900 50  0001 C CNN
F 3 "" H 2800 1900 50  0001 C CNN
	1    2800 1900
	1    0    0    -1  
$EndComp
$Comp
L Connector_Generic:Conn_01x04 J2
U 1 1 5D79C880
P 5850 2000
F 0 "J2" H 5930 1992 50  0000 L CNN
F 1 "Conn_01x04" H 5930 1901 50  0000 L CNN
F 2 "Connector_PinHeader_2.00mm:PinHeader_1x04_P2.00mm_Vertical" H 5850 2000 50  0001 C CNN
F 3 "~" H 5850 2000 50  0001 C CNN
	1    5850 2000
	1    0    0    -1  
$EndComp
$Comp
L Connector_Generic:Conn_01x04 J3
U 1 1 5D79CAB1
P 6550 2000
F 0 "J3" H 6470 2317 50  0000 C CNN
F 1 "Conn_01x04" H 6470 2226 50  0000 C CNN
F 2 "" H 6550 2000 50  0001 C CNN
F 3 "~" H 6550 2000 50  0001 C CNN
	1    6550 2000
	-1   0    0    -1  
$EndComp
Wire Wire Line
	6750 1900 7150 1900
Wire Wire Line
	7150 1900 7150 1850
Wire Wire Line
	7150 1850 7400 1850
Wire Wire Line
	6750 2000 7200 2000
Wire Wire Line
	7200 2000 7200 2150
Wire Wire Line
	7200 2150 7400 2150
Wire Wire Line
	6750 2100 7150 2100
Wire Wire Line
	7150 2100 7150 2550
Wire Wire Line
	7150 2550 7550 2550
Wire Wire Line
	6750 2200 7000 2200
Wire Wire Line
	7000 2200 7000 2750
Wire Wire Line
	7000 2750 7950 2750
Wire Wire Line
	7950 2750 7950 2550
Wire Wire Line
	5650 1900 4650 1900
Wire Wire Line
	4650 1900 4650 1800
Wire Wire Line
	5650 2000 4650 2000
Wire Wire Line
	4650 2000 4650 2100
$Comp
L power:GND #PWR0103
U 1 1 5D79D2B0
P 5650 2200
F 0 "#PWR0103" H 5650 1950 50  0001 C CNN
F 1 "GND" H 5655 2027 50  0000 C CNN
F 2 "" H 5650 2200 50  0001 C CNN
F 3 "" H 5650 2200 50  0001 C CNN
	1    5650 2200
	1    0    0    -1  
$EndComp
Wire Wire Line
	5200 3100 5200 2100
Wire Wire Line
	5200 2100 5650 2100
Wire Wire Line
	4050 2300 3650 2300
Wire Wire Line
	3650 2300 3650 2400
Wire Wire Line
	3650 2400 3300 2400
$Comp
L Connector_Generic:Conn_02x13_Odd_Even J1
U 1 1 5D7C89E8
P 3000 2500
F 0 "J1" H 3050 3317 50  0000 C CNN
F 1 "Conn_02x13_Odd_Even" H 3050 3226 50  0000 C CNN
F 2 "Connector_PinHeader_2.54mm:PinHeader_2x13_P2.54mm_Vertical" H 3000 2500 50  0001 C CNN
F 3 "~" H 3000 2500 50  0001 C CNN
	1    3000 2500
	1    0    0    -1  
$EndComp
Wire Wire Line
	3300 3100 3900 3100
$Comp
L Device:R R3
U 1 1 5D7C9BF0
P 3900 2950
F 0 "R3" H 3970 2996 50  0000 L CNN
F 1 "4.7k" H 3970 2905 50  0000 L CNN
F 2 "Resistor_THT:R_Axial_DIN0204_L3.6mm_D1.6mm_P5.08mm_Horizontal" V 3830 2950 50  0001 C CNN
F 3 "~" H 3900 2950 50  0001 C CNN
	1    3900 2950
	1    0    0    -1  
$EndComp
Connection ~ 3900 3100
Wire Wire Line
	3900 3100 5200 3100
$Comp
L power:+3.3V #PWR0106
U 1 1 5D7C9CA2
P 3900 2800
F 0 "#PWR0106" H 3900 2650 50  0001 C CNN
F 1 "+3.3V" H 3915 2973 50  0000 C CNN
F 2 "" H 3900 2800 50  0001 C CNN
F 3 "" H 3900 2800 50  0001 C CNN
	1    3900 2800
	1    0    0    -1  
$EndComp
$EndSCHEMATC
